
{
       "help":"https://data.gov.sg/api/3/action/help_show?name=datastore_search",
       "success":true,
       "result":{
              "resource_id":"a807b7ab-6cad-4aa6-87d0-e283a7353a0f",
              "fields":[
                     {
                            "type":"int4",
                            "id":"_id"
                         },
                     {
                            "type":"text",
                            "id":"quarter"
                         },
                     {
                            "type":"numeric",
                            "id":"volume_of_mobile_data"
                         }
                  ],
              "records":[
                     {
                            "volume_of_mobile_data":"0.171586",
                            "quarter":"2008-Q1",
                            "_id":15
                         },
                     {
                            "volume_of_mobile_data":"0.248899",
                            "quarter":"2008-Q2",
                            "_id":16
                         },
                     {
                            "volume_of_mobile_data":"0.439655",
                            "quarter":"2008-Q3",
                            "_id":17
                         },
                     {
                            "volume_of_mobile_data":"0.683579",
                            "quarter":"2008-Q4",
                            "_id":18
                         }
                  ],
              "_links":{
                     "start":"/api/action/datastore_search?limit=4&resource_id=a807b7ab-6cad-4aa6-87d0-e283a7353a0f",
                     "prev":"/api/action/datastore_search?offset=10&limit=4&resource_id=a807b7ab-6cad-4aa6-87d0-e283a7353a0f",
                     "next":"/api/action/datastore_search?offset=18&limit=4&resource_id=a807b7ab-6cad-4aa6-87d0-e283a7353a0f"
                  },
              "offset":14,
              "limit":4,
              "total":56
           }
}
